controller.vcd
$date
	Sat Nov 05 23:04:14 2022
$end
$version
	Icarus Verilog
$end
$timescale
	1ps
$end
$scope module controller_tb $end
$var wire 2 ! ALUControl [1:0] $end
$var wire 2 " ALUSrcA [1:0] $end
$var wire 2 # ALUSrcB [1:0] $end
$var wire 1 $ AdrSrc $end
$var wire 1 % IRWrite $end
$var wire 2 & ImmSrc [1:0] $end
$var wire 1 ' MemWrite $end
$var wire 1 ( PCWrite $end
$var wire 2 ) RegSrc [1:0] $end
$var wire 1 * RegWrite $end
$var wire 2 + ResultSrc [1:0] $end
$var reg 4 , ALUFlags [3:0] $end
$var reg 1 - Funct $end
$var reg 32 . Instr [31:0] $end
$var reg 1 / Op $end
$var reg 1 0 clk $end
$var reg 32 1 errors [31:0] $end
$var integer 32 2 i [31:0] $end
$var reg 1 3 reset $end
$var reg 32 4 vectornum [31:0] $end
$scope module dut $end
$var wire 2 5 ALUControl [1:0] $end
$var wire 4 6 ALUFlags [3:0] $end
$var wire 2 7 ALUSrcA [1:0] $end
$var wire 2 8 ALUSrcB [1:0] $end
$var wire 1 $ AdrSrc $end
$var wire 2 9 FlagW [1:0] $end
$var wire 1 % IRWrite $end
$var wire 2 : ImmSrc [1:0] $end
$var wire 20 ; Instr [31:12] $end
$var wire 1 < MemW $end
$var wire 1 ' MemWrite $end
$var wire 1 = NextPC $end
$var wire 1 > PCS $end
$var wire 1 ( PCWrite $end
$var wire 2 ? RegSrc [1:0] $end
$var wire 1 @ RegW $end
$var wire 1 * RegWrite $end
$var wire 2 A ResultSrc [1:0] $end
$var wire 1 B clk $end
$var wire 1 C reset $end
$scope module dec $end
$var wire 1 D ALUOp $end
$var wire 2 E ALUSrcA [1:0] $end
$var wire 2 F ALUSrcB [1:0] $end
$var wire 1 $ AdrSrc $end
$var wire 1 G Branch $end
$var wire 6 H Funct [5:0] $end
$var wire 1 % IRWrite $end
$var wire 2 I ImmSrc [1:0] $end
$var wire 1 < MemW $end
$var wire 1 = NextPC $end
$var wire 2 J Op [1:0] $end
$var wire 1 > PCS $end
$var wire 4 K Rd [3:0] $end
$var wire 2 L RegSrc [1:0] $end
$var wire 1 @ RegW $end
$var wire 2 M ResultSrc [1:0] $end
$var wire 1 B clk $end
$var wire 1 C reset $end
$var reg 2 N ALUControl [1:0] $end
$var reg 2 O FlagW [1:0] $end
$scope module fsm $end
$var wire 1 D ALUOp $end
$var wire 2 P ALUSrcA [1:0] $end
$var wire 2 Q ALUSrcB [1:0] $end
$var wire 1 $ AdrSrc $end
$var wire 1 G Branch $end
$var wire 6 R Funct [5:0] $end
$var wire 1 % IRWrite $end
$var wire 1 < MemW $end
$var wire 1 = NextPC $end
$var wire 2 S Op [1:0] $end
$var wire 1 @ RegW $end
$var wire 2 T ResultSrc [1:0] $end
$var wire 1 B clk $end
$var wire 1 C reset $end
$var reg 13 U controls [12:0] $end
$var reg 4 V nextstate [3:0] $end
$var reg 4 W state [3:0] $end
$upscope $end
$upscope $end
$scope module cl $end
$var wire 4 X ALUFlags [3:0] $end
$var wire 4 Y Cond [3:0] $end
$var wire 1 Z CondEx $end
$var wire 1 [ CurrentCondEx $end
$var wire 2 \ FlagW [1:0] $end
$var wire 2 ] FlagWrite [1:0] $end
$var wire 4 ^ Flags [3:0] $end
$var wire 1 < MemW $end
$var wire 1 ' MemWrite $end
$var wire 1 = NextPC $end
$var wire 1 > PCS $end
$var wire 1 _ PCSrc $end
$var wire 1 ( PCWrite $end
$var wire 1 @ RegW $end
$var wire 1 * RegWrite $end
$var wire 1 B clk $end
$var wire 1 C reset $end
$scope module flagreg1 $end
$var wire 1 B clk $end
$var wire 2 ` d [1:0] $end
$var wire 1 a en $end
$var wire 1 C reset $end
$var reg 2 b q [1:0] $end
$upscope $end
$scope module flagreg0 $end
$var wire 1 B clk $end
$var wire 2 c d [1:0] $end
$var wire 1 d en $end
$var wire 1 C reset $end
$var reg 2 e q [1:0] $end
$upscope $end
$scope module condexreg $end
$var wire 1 B clk $end
$var wire 1 Z d $end
$var wire 1 C reset $end
$var reg 1 f q $end
$upscope $end
$scope module cc $end
$var wire 4 g Cond [3:0] $end
$var wire 4 h Flags [3:0] $end
$var wire 1 i carry $end
$var wire 1 j ge $end
$var wire 1 k neg $end
$var wire 1 l overflow $end
$var wire 1 m zero $end
$var reg 1 n CondEx $end
$upscope $end
$upscope $end
$upscope $end
$upscope $end
$enddefinitions $end
#0
$dumpvars
xn
0m
0l
0k
1j
0i
b0 h
bx g
0f
b0 e
0d
bx c
b0 b
0a
bx `
0_
b0 ^
b0 ]
b0 \
0[
xZ
bx Y
bx X
b0 W
b1 V
b1000101001100 U
b10 T
bx S
bx R
b10 Q
b1 P
b0 O
b0 N
b10 M
bx L
bx K
bx J
bx I
bx H
0G
b10 F
b1 E
0D
1C
1B
b10 A
0@
bx ?
0>
1=
0<
bx ;
bx :
b0 9
b10 8
b1 7
bx 6
b0 5
b0 4
13
b0 2
b0 1
10
x/
bx .
x-
bx ,
b10 +
0*
bx )
1(
0'
bx &
1%
0$
b10 #
b1 "
b0 !
$end
#2000
03
0C
#5000
00
0B
#10000
0(
0=
0%
b1001100 U
b110 V
b1 W
xf
x[
1n
1Z
b0 &
b0 :
b0 I
b0 J
b0 S
b0 )
b0 ?
b0 L
b100 H
b100 R
b0 K
b1110 Y
b1110 g
b1 `
b10 c
b11100000010011110000 ;
b1 4
0-
0/
b110 ,
b110 6
b110 X
b11100000010011110000000000001111 .
b1 2
10
1B
#15000
00
0B
#20000
b0 O
b1 N
b1 !
b1 5
b0 +
b0 A
b0 M
b0 T
b0 "
b0 7
b0 E
b0 P
b0 #
b0 8
b0 F
b0 Q
1D
b1 U
b1000 V
1f
1[
b110 W
b10 2
10
1B
#25000
00
0B
#30000
1*
b0 N
b0 !
b0 5
1@
0D
b1000000000 U
b0 V
b1000 W
b11 2
10
1B
#35000
00
0B
#40000
1(
0*
1=
0@
1%
b10 +
b10 A
b10 M
b10 T
b1 "
b1 7
b1 E
b1 P
b10 #
b10 8
b10 F
b10 Q
b1000101001100 U
b1 V
b0 W
b100 2
10
1B
#45000
00
0B
#50000
0(
0=
0%
b1001100 U
b110 V
b1 W
b0 2
10
1B
#55000
00
0B
#60000
b0 O
b0 +
b0 A
b0 M
b0 T
b0 "
b0 7
b0 E
b0 P
b0 #
b0 8
b0 F
b0 Q
1D
b1 U
b110 W
b1000 V
b101000 H
b101000 R
b10 K
b0 `
b0 c
b11100010100000000010 ;
b10 4
b0 ,
b0 6
b0 X
b11100010100000000010000000000101 .
b1 2
10
1B
#65000
00
0B
#70000
1*
1@
0D
b1000000000 U
b0 V
b1000 W
b10 2
10
1B
#75000
00
0B
#80000
1(
0*
1=
0@
1%
b10 +
b10 A
b10 M
b10 T
b1 "
b1 7
b1 E
b1 P
b10 #
b10 8
b10 F
b10 Q
b1000101001100 U
b1 V
b0 W
b11 2
10
1B
#85000
00
0B
#90000
0(
0=
0%
b1001100 U
b111 V
b1 W
b100 2
10
1B
#95000
00
0B
#100000
b0 O
b0 +
b0 A
b0 M
b0 T
b0 "
b0 7
b0 E
b0 P
b1 #
b1 8
b1 F
b1 Q
1D
b11 U
b1000 V
b111 W
b0 2
10
1B
#105000
00
0B
#110000
1*
1@
b0 #
b0 8
b0 F
b0 Q
0D
b1000000000 U
b0 V
b1000 W
b11 K
b11100010100000000011 ;
b11 4
b11100010100000000011000000001100 .
b1 2
10
1B
#115000
00
0B
#120000
1(
0*
1=
0@
1%
b10 +
b10 A
b10 M
b10 T
b1 "
b1 7
b1 E
b1 P
b10 #
b10 8
b10 F
b10 Q
b1000101001100 U
b1 V
b0 W
b10 2
10
1B
#125000
00
0B
#130000
0(
0=
0%
b1001100 U
b111 V
b1 W
b11 2
10
1B
#135000
00
0B
#140000
b0 O
b0 +
b0 A
b0 M
b0 T
b0 "
b0 7
b0 E
b0 P
b1 #
b1 8
b1 F
b1 Q
1D
b11 U
b1000 V
b111 W
b100 2
10
1B
#145000
00
0B
#150000
1*
1@
b0 #
b0 8
b0 F
b0 Q
0D
b1000000000 U
b0 V
b1000 W
b0 2
10
1B
#155000
00
0B
#160000
1(
0*
1=
0@
1%
b10 +
b10 A
b10 M
b10 T
b1 "
b1 7
b1 E
b1 P
b10 #
b10 8
b10 F
b10 Q
b1000101001100 U
b1 V
b0 W
b100100 H
b100100 R
b111 K
b10 c
b11100010010000110111 ;
b100 4
b10 ,
b10 6
b10 X
b11100010010000110111000000001001 .
b1 2
10
1B
#165000
00
0B
#170000
0(
0=
0%
b1001100 U
b111 V
b1 W
b10 2
10
1B
#175000
00
0B
#180000
b0 O
b1 N
b1 !
b1 5
b0 +
b0 A
b0 M
b0 T
b0 "
b0 7
b0 E
b0 P
b1 #
b1 8
b1 F
b1 Q
1D
b11 U
b1000 V
b111 W
b11 2
10
1B
#185000
00
0B
#190000
1*
b0 N
b0 !
b0 5
1@
b0 #
b0 8
b0 F
b0 Q
0D
b1000000000 U
b0 V
b1000 W
b100 2
10
1B
#195000
00
0B
#200000
1(
0*
1=
0@
1%
b10 +
b10 A
b10 M
b10 T
b1 "
b1 7
b1 E
b1 P
b10 #
b10 8
b10 F
b10 Q
b1000101001100 U
b1 V
b0 W
b0 2
10
1B
#205000
00
0B
#210000
0(
0=
0%
b1001100 U
b110 V
b1 W
b11000 H
b11000 R
b100 K
b0 c
b11100001100001110100 ;
b101 4
b0 ,
b0 6
b0 X
b11100001100001110100000000000010 .
b1 2
10
1B
#215000
00
0B
#220000
b0 O
b11 N
b11 !
b11 5
b0 +
b0 A
b0 M
b0 T
b0 "
b0 7
b0 E
b0 P
b0 #
b0 8
b0 F
b0 Q
1D
b1 U
b1000 V
b110 W
b10 2
10
1B
#225000
00
0B
#230000
1*
b0 N
b0 !
b0 5
1@
0D
b1000000000 U
b0 V
b1000 W
b11 2
10
1B
#235000
00
0B
#240000
1(
0*
1=
0@
1%
b10 +
b10 A
b10 M
b10 T
b1 "
b1 7
b1 E
b1 P
b10 #
b10 8
b10 F
b10 Q
b1000101001100 U
b1 V
b0 W
b100 2
10
1B
#245000
00
0B
#250000
0(
0=
0%
b1001100 U
b110 V
b1 W
b0 2
10
1B
#255000
00
0B
#260000
b0 O
b10 N
b10 !
b10 5
b0 +
b0 A
b0 M
b0 T
b0 "
b0 7
b0 E
b0 P
b0 #
b0 8
b0 F
b0 Q
1D
b1 U
b1000 V
b110 W
b0 H
b0 R
b101 K
b11100000000000110101 ;
b110 4
b11100000000000110101000000000100 .
b1 2
10
1B
#265000
00
0B
#270000
1*
b0 N
b0 !
b0 5
1@
0D
b1000000000 U
b0 V
b1000 W
b10 2
10
1B
#275000
00
0B
#280000
1(
0*
1=
0@
1%
b10 +
b10 A
b10 M
b10 T
b1 "
b1 7
b1 E
b1 P
b10 #
b10 8
b10 F
b10 Q
b1000101001100 U
b1 V
b0 W
b11 2
10
1B
#285000
00
0B
#290000
0(
0=
0%
b1001100 U
b110 V
b1 W
b100 2
10
1B
#295000
00
0B
#300000
b0 O
b10 N
b10 !
b10 5
b0 +
b0 A
b0 M
b0 T
b0 "
b0 7
b0 E
b0 P
b0 #
b0 8
b0 F
b0 Q
1D
b1 U
b1000 V
b110 W
b0 2
10
1B
#305000
00
0B
#310000
1*
1@
0D
b1000000000 U
b0 V
b1000 W
b0 O
b0 N
b0 !
b0 5
b1000 H
b1000 R
b11100000100001010101 ;
b111 4
b11100000100001010101000000000100 .
b1 2
10
1B
#315000
00
0B
#320000
1(
0*
1=
0@
1%
b10 +
b10 A
b10 M
b10 T
b1 "
b1 7
b1 E
b1 P
b10 #
b10 8
b10 F
b10 Q
b1000101001100 U
b1 V
b0 W
b10 2
10
1B
#325000
00
0B
#330000
0(
0=
0%
b1001100 U
b110 V
b1 W
b11 2
10
1B
#335000
00
0B
#340000
b0 O
b0 +
b0 A
b0 M
b0 T
b0 "
b0 7
b0 E
b0 P
b0 #
b0 8
b0 F
b0 Q
1D
b1 U
b1000 V
b110 W
b100 2
10
1B
#345000
00
0B
#350000
1*
1@
0D
b1000000000 U
b0 V
b1000 W
b0 2
10
1B
#355000
00
0B
#360000
1(
0*
1=
0@
1%
b10 +
b10 A
b10 M
b10 T
b1 "
b1 7
b1 E
b1 P
b10 #
b10 8
b10 F
b10 Q
b1000101001100 U
b1 V
b0 W
b101 H
b101 R
b1000 K
b10 c
b11100000010101011000 ;
b1000 4
1-
b10 ,
b10 6
b10 X
b11100000010101011000000000000111 .
b1 2
10
1B
#365000
00
0B
#370000
0(
0=
0%
b1001100 U
b110 V
b1 W
b10 2
10
1B
#375000
00
0B
#380000
1a
1d
b11 ]
b11 O
b11 9
b11 \
b1 N
b1 !
b1 5
b0 +
b0 A
b0 M
b0 T
b0 "
b0 7
b0 E
b0 P
b0 #
b0 8
b0 F
b0 Q
1D
b1 U
b1000 V
b110 W
b11 2
10
1B
#385000
00
0B
#390000
0a
0d
b0 ]
1*
b0 O
b0 9
b0 \
b0 N
b0 !
b0 5
1@
0D
b1000000000 U
b0 V
1i
b1000 W
b10 e
b10 ^
b10 h
b100 2
10
1B
#395000
00
0B
#400000
1(
0*
1=
0@
1%
b10 +
b10 A
b10 M
b10 T
b1 "
b1 7
b1 E
b1 P
b10 #
b10 8
b10 F
b10 Q
b1000101001100 U
b1 V
b0 W
b0 2
10
1B
#405000
00
0B
#410000
0(
0=
0%
b1001100 U
b1001 V
b1 W
0n
0Z
b10 &
b10 :
b10 I
b10 J
b10 S
b1 )
b1 ?
b1 L
b100000 H
b100000 R
b0 K
b0 Y
b0 g
b0 c
b1010000000000000 ;
b1001 4
0-
b0 ,
b0 6
b0 X
b1010000000000000000000001100 .
b1 2
10
1B
#415000
00
0B
#420000
1>
1G
b10 "
b10 7
b10 E
b10 P
b1 #
b1 8
b1 F
b1 Q
b100001010010 U
b0 V
0f
0[
b1001 W
b10 2
10
1B
#425000
00
0B
#430000
1(
0>
1=
0G
1%
b1 "
b1 7
b1 E
b1 P
b10 #
b10 8
b10 F
b10 Q
b1000101001100 U
b1 V
b0 W
b11 2
10
1B
#435000
00
0B
#440000
0(
0=
0%
b1001100 U
b1001 V
b1 W
b100 2
10
1B
#445000
00
0B
#450000
1>
1G
b10 "
b10 7
b10 E
b10 P
b1 #
b1 8
b1 F
b1 Q
b100001010010 U
b0 V
b1001 W
b0 2
10
1B
#455000
00
0B
#460000
1(
0>
1=
0G
1%
b1 "
b1 7
b1 E
b1 P
b10 #
b10 8
b10 F
b10 Q
b1000101001100 U
b1 V
b0 W
1n
1Z
b0 &
b0 :
b0 I
b0 J
b0 S
b0 )
b0 ?
b0 L
b101 H
b101 R
b1000 K
b1110 Y
b1110 g
b10 c
b11100000010100111000 ;
b1010 4
1-
b10 ,
b10 6
b10 X
b11100000010100111000000000000100 .
b1 2
10
1B
#465000
00
0B
#470000
0(
0=
0%
b1001100 U
b110 V
b1 W
1f
1[
b10 2
10
1B
#475000
00
0B
#480000
1a
1d
b11 ]
b11 O
b11 9
b11 \
b1 N
b1 !
b1 5
b0 +
b0 A
b0 M
b0 T
b0 "
b0 7
b0 E
b0 P
b0 #
b0 8
b0 F
b0 Q
1D
b1 U
b1000 V
b110 W
b11 2
10
1B
#485000
00
0B
#490000
0a
0d
b0 ]
1*
b0 O
b0 9
b0 \
b0 N
b0 !
b0 5
1@
0D
b1000000000 U
b0 V
b1000 W
b100 2
10
1B
#495000
00
0B
#500000
1(
0*
1=
0@
1%
b10 +
b10 A
b10 M
b10 T
b1 "
b1 7
b1 E
b1 P
b10 #
b10 8
b10 F
b10 Q
b1000101001100 U
b1 V
b0 W
b0 2
10
1B
#505000
00
0B
#510000
0(
0=
0%
b1001100 U
b1001 V
b1 W
b10 &
b10 :
b10 I
b10 J
b10 S
b1 )
b1 ?
b1 L
b100000 H
b100000 R
b0 K
b1010 Y
b1010 g
b0 c
b10101010000000000000 ;
b1011 4
0-
b0 ,
b0 6
b0 X
b10101010000000000000000000000000 .
b1 2
10
1B
#515000
00
0B
#520000
1(
1_
1>
1G
b10 "
b10 7
b10 E
b10 P
b1 #
b1 8
b1 F
b1 Q
b100001010010 U
b0 V
b1001 W
b10 2
10
1B
#525000
00
0B
#530000
0_
0>
1=
0G
1%
b1 "
b1 7
b1 E
b1 P
b10 #
b10 8
b10 F
b10 Q
b1000101001100 U
b1 V
b0 W
b11 2
10
1B
#535000
00
0B
#540000
0(
0=
0%
b1001100 U
b1001 V
b1 W
b100 2
10
1B
#545000
00
0B
#550000
1(
1_
1>
1G
b10 "
b10 7
b10 E
b10 P
b1 #
b1 8
b1 F
b1 Q
b100001010010 U
b0 V
b1001 W
b0 2
10
1B
#555000
00
0B
#560000
0_
0>
1=
0G
1%
b1 "
b1 7
b1 E
b1 P
b10 #
b10 8
b10 F
b10 Q
b1000101001100 U
b1 V
b0 W
b0 &
b0 :
b0 I
b0 J
b0 S
b0 )
b0 ?
b0 L
b101000 H
b101000 R
b101 K
b1110 Y
b1110 g
b11100010100000000101 ;
b1100 4
b11100010100000000101000000000000 .
b1 2
10
1B
#565000
00
0B
#570000
0(
0=
0%
b1001100 U
b111 V
b1 W
b10 2
10
1B
#575000
00
0B
#580000
b0 O
b0 +
b0 A
b0 M
b0 T
b0 "
b0 7
b0 E
b0 P
b1 #
b1 8
b1 F
b1 Q
1D
b11 U
b1000 V
b111 W
b11 2
10
1B
#585000
00
0B
#590000
1*
1@
b0 #
b0 8
b0 F
b0 Q
0D
b1000000000 U
b0 V
b1000 W
b100 2
10
1B
#595000
00
0B
#600000
1(
0*
1=
0@
1%
b10 +
b10 A
b10 M
b10 T
b1 "
b1 7
b1 E
b1 P
b10 #
b10 8
b10 F
b10 Q
b1000101001100 U
b1 V
b0 W
b0 2
10
1B
#605000
00
0B
#610000
0(
0=
0%
b1001100 U
b110 V
b1 W
b101 H
b101 R
b1000 K
b10 `
b11100000010101111000 ;
b1101 4
1-
b1000 ,
b1000 6
b1000 X
b11100000010101111000000000000010 .
b1 2
10
1B
#615000
00
0B
#620000
1a
1d
b11 ]
b11 O
b11 9
b11 \
b1 N
b1 !
b1 5
b0 +
b0 A
b0 M
b0 T
b0 "
b0 7
b0 E
b0 P
b0 #
b0 8
b0 F
b0 Q
1D
b1 U
b1000 V
b110 W
b10 2
10
1B
#625000
00
0B
#630000
0a
0d
b0 ]
1*
b0 O
b0 9
b0 \
b0 N
b0 !
b0 5
1@
0D
0j
b1000000000 U
b0 V
1k
0i
b1000 W
b10 b
b0 e
b1000 ^
b1000 h
b11 2
10
1B
#635000
00
0B
#640000
1(
0*
1=
0@
1%
b10 +
b10 A
b10 M
b10 T
b1 "
b1 7
b1 E
b1 P
b10 #
b10 8
b10 F
b10 Q
b1000101001100 U
b1 V
b0 W
b100 2
10
1B
#645000
00
0B
#650000
0(
0=
0%
b1001100 U
b110 V
b1 W
b0 2
10
1B
#655000
00
0B
#660000
b0 O
b0 +
b0 A
b0 M
b0 T
b0 "
b0 7
b0 E
b0 P
b0 #
b0 8
b0 F
b0 Q
1D
b1 U
b110 W
b1000 V
b101000 H
b101000 R
b111 K
b1011 Y
b1011 g
b0 `
b10110010100001010111 ;
b1110 4
0-
b0 ,
b0 6
b0 X
b10110010100001010111000000000001 .
b1 2
10
1B
#665000
00
0B
#670000
1*
1@
0D
b1000000000 U
b0 V
b1000 W
b10 2
10
1B
#675000
00
0B
#680000
1(
0*
1=
0@
1%
b10 +
b10 A
b10 M
b10 T
b1 "
b1 7
b1 E
b1 P
b10 #
b10 8
b10 F
b10 Q
b1000101001100 U
b1 V
b0 W
b11 2
10
1B
#685000
00
0B
#690000
0(
0=
0%
b1001100 U
b111 V
b1 W
b100 2
10
1B
#695000
00
0B
#700000
b0 O
b0 +
b0 A
b0 M
b0 T
b0 "
b0 7
b0 E
b0 P
b1 #
b1 8
b1 F
b1 Q
1D
b11 U
b1000 V
b111 W
b0 2
10
1B
#705000
00
0B
#710000
1*
1@
b0 #
b0 8
b0 F
b0 Q
0D
b1000000000 U
b0 V
b1000 W
b0 O
b0 N
b0 !
b0 5
b100 H
b100 R
b1110 Y
b1110 g
b10 c
b11100000010001110111 ;
b1111 4
b10 ,
b10 6
b10 X
b11100000010001110111000000000010 .
b1 2
10
1B
#715000
00
0B
#720000
1(
0*
1=
0@
1%
b10 +
b10 A
b10 M
b10 T
b1 "
b1 7
b1 E
b1 P
b10 #
b10 8
b10 F
b10 Q
b1000101001100 U
b1 V
b0 W
b10 2
10
1B
#725000
00
0B
#730000
0(
0=
0%
b1001100 U
b110 V
b1 W
b11 2
10
1B
#735000
00
0B
#740000
b0 O
b1 N
b1 !
b1 5
b0 +
b0 A
b0 M
b0 T
b0 "
b0 7
b0 E
b0 P
b0 #
b0 8
b0 F
b0 Q
1D
b1 U
b1000 V
b110 W
b100 2
10
1B
#745000
00
0B
#750000
1*
b0 N
b0 !
b0 5
1@
0D
b1000000000 U
b0 V
b1000 W
b0 2
10
1B
#755000
00
0B
#760000
1(
0*
1=
0@
1%
b10 +
b10 A
b10 M
b10 T
b1 "
b1 7
b1 E
b1 P
b10 #
b10 8
b10 F
b10 Q
b1000101001100 U
b1 V
b0 W
b1 &
b1 :
b1 I
b1 J
b1 S
b10 )
b10 ?
b10 L
b11000 H
b11000 R
b0 c
b11100101100000110111 ;
b10000 4
1/
b0 ,
b0 6
b0 X
b11100101100000110111000001010100 .
b1 2
10
1B
#765000
00
0B
#770000
0(
0=
0%
b1001100 U
b10 V
b1 W
b10 2
10
1B
#775000
00
0B
#780000
b0 +
b0 A
b0 M
b0 T
b0 "
b0 7
b0 E
b0 P
b1 #
b1 8
b1 F
b1 Q
b10 U
b101 V
b10 W
b11 2
10
1B
#785000
00
0B
#790000
1'
1<
1$
b0 #
b0 8
b0 F
b0 Q
b10010000000 U
b0 V
b101 W
b100 2
10
1B
#795000
00
0B
#800000
1(
0'
1=
0<
1%
0$
b10 +
b10 A
b10 M
b10 T
b1 "
b1 7
b1 E
b1 P
b10 #
b10 8
b10 F
b10 Q
b1000101001100 U
b1 V
b0 W
b0 2
10
1B
#805000
00
0B
#810000
0(
0=
0%
b1001100 U
b10 V
b1 W
b11001 H
b11001 R
b10 K
b11100101100100000010 ;
b10001 4
1-
b11100101100100000010000001100000 .
b1 2
10
1B
#815000
00
0B
#820000
b0 +
b0 A
b0 M
b0 T
b0 "
b0 7
b0 E
b0 P
b1 #
b1 8
b1 F
b1 Q
b10 U
b11 V
b10 W
b10 2
10
1B
#825000
00
0B
#830000
1$
b0 #
b0 8
b0 F
b0 Q
b10000000 U
b100 V
b11 W
b11 2
10
1B
#835000
00
0B
#840000
1*
1@
0$
b1 +
b1 A
b1 M
b1 T
b1000100000 U
b0 V
b100 W
b100 2
10
1B
#845000
00
0B
#850000
1(
0*
1=
0@
1%
b10 +
b10 A
b10 M
b10 T
b1 "
b1 7
b1 E
b1 P
b10 #
b10 8
b10 F
b10 Q
b1000101001100 U
b1 V
b0 W
b101 2
10
1B
#855000
00
0B
#860000
0(
0=
0%
b1001100 U
b10 V
b1 W
b0 2
10
1B
#865000
00
0B
#870000
b0 +
b0 A
b0 M
b0 T
b0 "
b0 7
b0 E
b0 P
b1 #
b1 8
b1 F
b1 Q
b10 U
b10 W
b101 V
b0 &
b0 :
b0 I
b0 J
b0 S
b0 )
b0 ?
b0 L
b1000 H
b1000 R
b1111 K
b11100000100011111111 ;
b10010 4
0-
0/
b11100000100011111111000000000000 .
b1 2
10
1B
#875000
00
0B
#880000
1'
1<
1$
b0 #
b0 8
b0 F
b0 Q
b10010000000 U
b0 V
b101 W
b10 2
10
1B
#885000
00
0B
#890000
1(
0'
1=
0<
1%
0$
b10 +
b10 A
b10 M
b10 T
b1 "
b1 7
b1 E
b1 P
b10 #
b10 8
b10 F
b10 Q
b1000101001100 U
b1 V
b0 W
b11 2
10
1B
#895000
00
0B
#900000
0(
0=
0%
b1001100 U
b110 V
b1 W
b100 2
10
1B
#905000
00
0B
#910000
b0 O
b0 +
b0 A
b0 M
b0 T
b0 "
b0 7
b0 E
b0 P
b0 #
b0 8
b0 F
b0 Q
1D
b1 U
b1000 V
b110 W
b0 2
10
1B
#915000
00
0B
#920000
1*
1@
0D
b1000000000 U
b0 V
b1000 W
b0 O
b101000 H
b101000 R
b10 K
b11100010100000000010 ;
b10011 4
b11100010100000000010000000001110 .
b1 2
10
1B
#925000
00
0B
#930000
1(
0*
1=
0@
1%
b10 +
b10 A
b10 M
b10 T
b1 "
b1 7
b1 E
b1 P
b10 #
b10 8
b10 F
b10 Q
b1000101001100 U
b1 V
b0 W
b10 2
10
1B
#935000
00
0B
#940000
0(
0=
0%
b1001100 U
b111 V
b1 W
b11 2
10
1B
#945000
00
0B
#950000
b0 O
b0 +
b0 A
b0 M
b0 T
b0 "
b0 7
b0 E
b0 P
b1 #
b1 8
b1 F
b1 Q
1D
b11 U
b1000 V
b111 W
b100 2
10
1B
#955000
00
0B
#960000
1*
1@
b0 #
b0 8
b0 F
b0 Q
0D
b1000000000 U
b0 V
b1000 W
b0 2
10
1B
#965000
00
0B
#970000
1(
0*
1=
0@
1%
b10 +
b10 A
b10 M
b10 T
b1 "
b1 7
b1 E
b1 P
b10 #
b10 8
b10 F
b10 Q
b1000101001100 U
b1 V
b0 W
b10 &
b10 :
b10 I
b10 J
b10 S
b1 )
b1 ?
b1 L
b100000 H
b100000 R
b0 K
b11101010000000000000 ;
b10100 4
b11101010000000000000000000000001 .
b1 2
10
1B
#975000
00
0B
#980000
0(
0=
0%
b1001100 U
b1001 V
b1 W
b10 2
10
1B
#985000
00
0B
#990000
1(
1_
1>
1G
b10 "
b10 7
b10 E
b10 P
b1 #
b1 8
b1 F
b1 Q
b100001010010 U
b0 V
b1001 W
b11 2
10
1B
#995000
00
0B
#1000000
0_
0>
1=
0G
1%
b1 "
b1 7
b1 E
b1 P
b10 #
b10 8
b10 F
b10 Q
b1000101001100 U
b1 V
b0 W
b100 2
10
1B
#1005000
00
0B
#1010000
0(
0=
0%
b1001100 U
b1001 V
b1 W
b0 2
10
1B
#1015000
00
0B
#1020000
1(
1_
1>
1G
b10 "
b10 7
b10 E
b10 P
b1 #
b1 8
b1 F
b1 Q
b100001010010 U
b1001 W
b0 V
b0 &
b0 :
b0 I
b0 J
b0 S
b0 )
b0 ?
b0 L
b101000 H
b101000 R
b10 K
b11100010100000000010 ;
b10101 4
b11100010100000000010000000001101 .
b1 2
10
1B
#1025000
00
0B
#1030000
0_
0>
1=
0G
1%
b1 "
b1 7
b1 E
b1 P
b10 #
b10 8
b10 F
b10 Q
b1000101001100 U
b1 V
b0 W
b10 2
10
1B
#1035000
00
0B
#1040000
0(
0=
0%
b1001100 U
b111 V
b1 W
b11 2
10
1B
#1045000
00
0B
#1050000
b0 O
b0 +
b0 A
b0 M
b0 T
b0 "
b0 7
b0 E
b0 P
b1 #
b1 8
b1 F
b1 Q
1D
b11 U
b1000 V
b111 W
b100 2
10
1B
#1055000
00
0B
#1060000
1*
1@
b0 #
b0 8
b0 F
b0 Q
0D
b1000000000 U
b0 V
b1000 W
b0 2
10
1B
#1065000
00
0B
#1070000
1(
0*
1=
0@
1%
b10 +
b10 A
b10 M
b10 T
b1 "
b1 7
b1 E
b1 P
b10 #
b10 8
b10 F
b10 Q
b1000101001100 U
b1 V
b0 W
b10110 4
b11100010100000000010000000001010 .
b1 2
10
1B
#1075000
00
0B
#1080000
0(
0=
0%
b1001100 U
b111 V
b1 W
b10 2
10
1B
#1085000
00
0B
#1090000
b0 O
b0 +
b0 A
b0 M
b0 T
b0 "
b0 7
b0 E
b0 P
b1 #
b1 8
b1 F
b1 Q
1D
b11 U
b1000 V
b111 W
b11 2
10
1B
#1095000
00
0B
#1100000
1*
1@
b0 #
b0 8
b0 F
b0 Q
0D
b1000000000 U
b0 V
b1000 W
b100 2
10
1B
#1105000
00
0B
#1110000
1(
0*
1=
0@
1%
b10 +
b10 A
b10 M
b10 T
b1 "
b1 7
b1 E
b1 P
b10 #
b10 8
b10 F
b10 Q
b1000101001100 U
b1 V
b0 W
b0 2
10
1B
#1115000
00
0B
#1120000
0(
0=
0%
b1001100 U
b10 V
b1 W
b1 &
b1 :
b1 I
b1 J
b1 S
b10 )
b10 ?
b10 L
b11000 H
b11000 R
b11100101100000000010 ;
b10111 4
1/
b11100101100000000010000001100100 .
b1 2
10
1B
